0,0.000775337219238
0.022474527359009,0.02321982383728
0.054436445236206,0.054521799087525
0.087998867034912,0.088135480880737
0.121676921844482,0.121847152709961
0.1542809009552,0.15434455871582
0.188279390335083,0.188431262969971
0.225321531295776,0.225534677505493
0.254530668258667,0.254577159881592
0.287867784500122,0.287903070449829
0.322407484054565,0.322452068328857
0.354663372039795,0.354752779006958
0.387592077255249,0.387627363204956
0.421095848083496,0.421147584915161
0.454285621643066,0.454338312149048
0.487691879272461,0.487748622894287
0.52102518081665,0.521074533462524
0.554649353027344,0.554759025573731
0.587607622146606,0.587642908096314
0.620954751968384,0.620991706848145
0.654295444488525,0.654338836669922
0.687697172164917,0.687742948532105
0.721063375473022,0.721116065979004
0.754267930984497,0.754303693771362
0.787694692611694,0.787738800048828
0.821008443832397,0.821047306060791
0.854348659515381,0.854394912719727
0.888282775878906,0.888429880142212
0.922006368637085,0.922189474105835
0.954645395278931,0.95474648475647
0.988152265548706,0.988343000411987
1.02106809616089,1.02110433578491
1.05536580085754,1.05553293228149
1.08842015266418,1.08855867385864
1.12103509902954,1.1210720539093
1.15434694290161,1.15439224243164
1.1877589225769,1.18781113624573
1.22106957435608,1.22112631797791
1.25446200370789,1.2545108795166
1.28776502609253,1.28781580924988
1.32101964950562,1.32109117507935
1.35440063476563,1.35444903373718
1.38777542114258,1.38781189918518
1.42110896110535,1.42116403579712
1.45441865921021,1.45445418357849
1.48775410652161,1.4878044128418
1.52112698554993,1.52117705345154
1.55448818206787,1.5545392036438
1.58774876594543,1.58778405189514
1.62114262580872,1.62119507789612
1.654465675354,1.65451145172119
1.6878604888916,1.687903881073
1.72113537788391,1.72117233276367
1.75448656082153,1.75452923774719
1.7877984046936,1.78783988952637
1.82132244110107,1.82135820388794
1.8544442653656,1.85447764396668
1.88844561576843,1.88861751556396
1.92179131507874,1.92195963859558
1.95484304428101,1.95503044128418
1.98783802986145,1.98787236213684
2.02116727828979,2.02120161056519
2.05450177192688,2.05455684661865
2.08780121803284,2.08784365653992
2.12111735343933,2.12115430831909
2.15504860877991,2.15521955490112
2.18786382675171,2.18790459632874
2.22118258476257,2.22122192382812
2.25451874732971,2.25457668304443
2.28794741630554,2.28800272941589
2.32115650177002,2.32119083404541
2.35450553894043,2.35454893112183
2.38792109489441,2.38796710968018
2.4211630821228,2.42119789123535
2.45457577705383,2.45460963249207
2.48793268203735,2.48797512054443
2.52121901512146,2.52125263214111
2.5545449256897,2.55457878112793
2.58794569969177,2.58798909187317
2.62143397331238,2.62150263786316
2.65454864501953,2.65458536148071
2.68792748451233,2.68796706199646
2.72124886512756,2.72128868103027
2.75468301773071,2.75472831726074
2.78801131248474,2.78806090354919
2.82126116752625,2.82130002975464
2.85461258888245,2.85465359687805
2.88794755935669,2.88798713684082
2.92130780220032,2.9213502407074
2.9546365737915,2.95468091964722
2.98799920082092,2.98803973197937
3.02129530906677,3.02133512496948
3.05465054512024,3.0546977519989
3.08791756629944,3.08796167373657
3.12129211425781,3.12132978439331
3.15465688705444,3.15471935272217
3.18800187110901,3.18804597854614
3.22145009040833,3.22148752212524
3.25494790077209,3.25499510765076
3.28804063796997,3.28810453414917
